STUDY4 Multilevel (ML_min) Summary
…
Global Parameters (bias & coverage)

params_to_show <- c("phi11", "phi12", "phi21", "phi22", "rho",
                    "sigma[1]", "sigma[2]", "sigma_exp[1]", "sigma_exp[2]",
                    "mu_bar[1]", "mu_bar[2]", "tau_mu[1]", "tau_mu[2]")

cond_glob <- cond_tbl |>
  filter(param %in% params_to_show) |>
  mutate(param = factor(param, levels = params_to_show),
         condition_id = factor(condition_id))

cond_glob |> select(condition_id, model, param, mean_bias, coverage_95, N_valid) |>
  arrange(model, condition_id, param)

# A tibble: 40 × 6
   condition_id model    param      mean_bias coverage_95 N_valid
   <fct>        <chr>    <fct>          <dbl>       <dbl>   <dbl>
 1 1            EG_MLmin phi11      0.000284        0.933      30
 2 1            EG_MLmin phi12     -0.000597        0.967      30
 3 1            EG_MLmin phi21     -0.0000313       1          30
 4 1            EG_MLmin phi22      0.000267        0.967      30
 5 1            EG_MLmin rho       -0.00342         0.9        30
 6 1            EG_MLmin mu_bar[1]  0.00235         0.933      30
 7 1            EG_MLmin mu_bar[2] -0.00584         0.933      30
 8 1            EG_MLmin tau_mu[1]  0.0140          0.8        30
 9 1            EG_MLmin tau_mu[2]  0.00992         0.967      30
10 2            EG_MLmin phi11     -0.000614        1          30
# ℹ 30 more rows
…
